236.2919690609
462.07406020164
689.63880419731
914.04038619995
1140.1296060085
1365.642553091
1593.8713650703
1821.85552001
2043.561882019
2271.3541870117
2501.4716989994
2725.5808410645
2951.6340022087
3178.4360802174
3403.1537320614
3632.1980781555
3860.0996611118
4085.1836681366
4313.1314890385
4537.0697669983
4764.1277191639
4993.609899044
5216.6879990101
5445.3372921944
5672.3925890923
5898.885695219
6128.3719940186
6354.4528820515
6581.3289971352
6809.3300461769
7034.2607371807
7212.015486002
7387.2080800533
7564.1872940063
7740.1398420334
7916.5566861629
8043.5573151112
8161.4267840385
8278.9802010059
8397.2950570583
